digraph system {
_0[label="", shape=none ];
_0->0;
15 [label= "15 [c.d, f.d, l.d, s.d]"];
7 [label= "7 [c.d, f.d, l.d, s.g]"];
11 [label= "11 [c.g, f.d, l.d, s.d]"];
13 [label= "13 [c.d, f.d, l.g, s.d]"];
5 [label= "5 [c.d, f.d, l.g, s.g]"];
10 [label= "10 [c.g, f.g, l.d, s.d]"];
2 [label= "2 [c.g, f.g, l.d, s.g]"];
4 [label= "4 [c.d, f.g, l.g, s.g]"];
8 [label= "8 [c.g, f.g, l.g, s.d]"];
0 [label= "0 [c.g, f.g, l.g, s.g]"];
15->10 [label= "chevre"];
7->2 [label= "chevre"];
11->10 [label= "fermier"];
11->2 [label= "salade"];
7->4 [label= "loup"];
11->8 [label= "loup"];
13->4 [label= "salade"];
5->4 [label= "fermier"];
13->8 [label= "chevre"];
5->0 [label= "chevre"];
10->15 [label= "chevre"];
2->7 [label= "chevre"];
10->11 [label= "fermier"];
2->11 [label= "salade"];
4->7 [label= "loup"];
8->11 [label= "loup"];
4->13 [label= "salade"];
4->5 [label= "fermier"];
8->13 [label= "chevre"];
0->5 [label= "chevre"];
}
